%YAML 1.1
%TAG !u! tag:unity3d.com,2011:
--- !u!114 &11400000
MonoBehaviour:
  m_ObjectHideFlags: 0
  m_CorrespondingSourceObject: {fileID: 0}
  m_PrefabInstance: {fileID: 0}
  m_PrefabAsset: {fileID: 0}
  m_GameObject: {fileID: 0}
  m_Enabled: 1
  m_EditorHideFlags: 0
  m_Script: {fileID: 11500000, guid: 769a7305fafe69848a67000c9748c411, type: 3}
  m_Name: Item Container
  m_EditorClassIdentifier: 
  Items:
  - Sprite: {fileID: -1752778166943970746, guid: da129a0bdb0f24544869efa53a01a8ec,
      type: 3}
    Name: Wrench
  - Sprite: {fileID: 343678996328073996, guid: da129a0bdb0f24544869efa53a01a8ec, type: 3}
    Name: Cog
  - Sprite: {fileID: 269024105630035779, guid: da129a0bdb0f24544869efa53a01a8ec, type: 3}
    Name: Mallet
  - Sprite: {fileID: -4040857217339379381, guid: da129a0bdb0f24544869efa53a01a8ec,
      type: 3}
    Name: Exhaust
  - Sprite: {fileID: -5598951513429328272, guid: da129a0bdb0f24544869efa53a01a8ec,
      type: 3}
    Name: Lamp
  - Sprite: {fileID: 4752582356862440583, guid: da129a0bdb0f24544869efa53a01a8ec,
      type: 3}
    Name: Screwdriver
  - Sprite: {fileID: -7082681821611036974, guid: da129a0bdb0f24544869efa53a01a8ec,
      type: 3}
    Name: Electric Screwdriver
  - Sprite: {fileID: 8648812496288827059, guid: da129a0bdb0f24544869efa53a01a8ec,
      type: 3}
    Name: Oil Can
  - Sprite: {fileID: 4596991925160601901, guid: da129a0bdb0f24544869efa53a01a8ec,
      type: 3}
    Name: Wheel
  - Sprite: {fileID: 2747279439142810346, guid: da129a0bdb0f24544869efa53a01a8ec,
      type: 3}
    Name: Fan Blades
  - Sprite: {fileID: -5373662006949332270, guid: da129a0bdb0f24544869efa53a01a8ec,
      type: 3}
    Name: Saw
  - Sprite: {fileID: -3309495326952297721, guid: da129a0bdb0f24544869efa53a01a8ec,
      type: 3}
    Name: Cell
  - Sprite: {fileID: 7952394396172203031, guid: da129a0bdb0f24544869efa53a01a8ec,
      type: 3}
    Name: Motor
  - Sprite: {fileID: 675526016380748414, guid: da129a0bdb0f24544869efa53a01a8ec, type: 3}
    Name: Cables
  - Sprite: {fileID: -486189394244339009, guid: da129a0bdb0f24544869efa53a01a8ec,
      type: 3}
    Name: Other Wrench
  - Sprite: {fileID: -9110243562234131064, guid: da129a0bdb0f24544869efa53a01a8ec,
      type: 3}
    Name: Battery
