%YAML 1.1
%TAG !u! tag:unity3d.com,2011:
--- !u!78 &1
TagManager:
  serializedVersion: 2
  tags: []
  layers:
  - Default
  - TransparentFX
  - Ignore Raycast
  - 
  - Water
  - UI
  - 
  - 
  - 
  - 
  - 
  - 
  - 
  - 
  - 
  - 
  - 
  - 
  - 
  - 
  - 
  - 
  - 
  - 
  - 
  - 
  - 
  - 
  - 
  - 
  - 
  - 
  m_SortingLayers:
  - name: Default
    uniqueID: 0
    locked: 0
  - name: Map
    uniqueID: 1073800257
    locked: 0
  - name: Map Items
    uniqueID: 3116883659
    locked: 0
  - name: Ground Items
    uniqueID: 2477058857
    locked: 0
  - name: Characters
    uniqueID: 1237072801
    locked: 0
  - name: Held Items
    uniqueID: 2468364055
    locked: 0
